Equinor,781946
Norsk Hydro,153212 
Telenor,110241
KLP,125577
NorgesGruppen,102885
Storebrand,119781
Reitangruppen,82782
Coop Norge,59939
Statkraft,82976
Orkla,50441
Mowi,42715
Norwegian Air Shuttle,5068
Norsk Tipping,43745
Atea,41316
Veidekke,37592
Wallenius Wilhelmsen,33402
Subsea 7 Norway,42086
MøllerGruppen,36136
Gjensidige,33434
Aker BP,48751
Aker Solutions,29473
Sparebank 1 Gruppen,40446 
Elkem,33717 
DNB,68094
Subsea 7 Norway,42086
Orkla,50441
Yara International,142820